dump.vcd
$date
	Fri Jul 11 10:30:03 2025
$end

$version
	Synopsys VCS version U-2023.03-SP2_Full64
$end

$timescale
	1ns
$end

$comment Csum: 1 b67f7df32aa4bd1e $end


$scope module $unit $end
$upscope $end


$scope module tb_top $end
$var reg 1 ! clk $end
$var reg 1 " rst $end

$scope module org $end
$var wire 1 # clk $end
$var wire 1 $ rst $end
$var reg 1 % wen $end
$var reg 1 & ren $end
$var reg 2 ' addr [1:0] $end
$var reg 8 ( wdata [7:0] $end
$var reg 8 ) rdata [7:0] $end
$upscope $end


$scope module q3 $end

$scope begin unnamed$$_0 $end
$upscope $end

$upscope $end

$upscope $end

$enddefinitions $end

#0
$dumpvars
1!
1"
bxxxxxxxx )
b00000000 (
b00 '
0&
0%
1#
1$
$end
#5
0!
0#
0"
0$
#10
1!
1#
b01 '
1&
#15
0!
0#
#20
1!
1#
b11111111 )
0&
#25
0!
0#
#30
1!
1#
#35
0!
0#
#40
1!
1#
1%
b10111000 (
b1101x000 (
#45
0!
0#
#50
1!
1#
0%
#55
0!
0#
#60
1!
1#
1%
b11101110 (
b1111000x (
#65
0!
0#
#70
1!
1#
0%
#75
0!
0#
#80
1!
1#
1&
#85
0!
0#
#90
1!
1#
b1111000x )
0&
#95
0!
0#
#100
1!
1#
#105
0!
0#
#110
1!
1#
1%
b10101011 (
b01011x11 (
#115
0!
0#
#120
1!
1#
0%
#125
0!
0#
#130
1!
1#
1%
b10110100 (
b01011x11 (
#135
0!
0#
#140
1!
1#
0%
#145
0!
0#
#150
1!
1#
1&
#155
0!
0#
#160
1!
1#
b01011x11 )
0&
#165
0!
0#
#170
1!
1#
#175
0!
0#
#180
1!
1#
1&
#185
0!
0#
#190
1!
1#
0&
#195
0!
0#
#200
1!
1#
#205
0!
0#
#210
1!
1#
1%
b11110110 (
b10x11011 (
#215
0!
0#
#220
1!
1#
0%
#225
0!
0#
#230
1!
1#
1%
b00011111 (
b101010x1 (
#235
0!
0#
#240
1!
1#
0%
#245
0!
0#
#250
1!
1#
1%
b11110101 (
b01011x11 (
#255
0!
0#
#260
1!
1#
0%
#265
0!
0#
#270
1!
1#
1%
b01010101 (
b10x11011 (
#275
0!
0#
#280
1!
1#
0%
#285
0!
0#
#290
1!
1#
1%
b00101011 (
b10x11011 (
#295
0!
0#
#300
1!
1#
0%
#305
0!
0#
#310
1!
1#
1&
#315
0!
0#
#320
1!
1#
b10x11011 )
0&
#325
0!
0#
#330
1!
1#
#335
0!
0#
#340
1!
1#
1%
b01111101 (
b011x1110 (
#345
0!
0#
#350
1!
1#
0%
#355
0!
0#
#360
1!
1#
1%
b01011111 (
b101010x1 (
#365
0!
0#
#370
1!
1#
0%
#375
0!
0#
#380
1!
1#
1%
b10010110 (
b01011x11 (
#385
0!
0#
#390
1!
1#
0%
#395
0!
0#
#400
1!
1#
1&
#405
0!
0#
#410
1!
1#
b01011x11 )
0&
#415
0!
0#
#420
1!
1#
#425
0!
0#
#430
1!
1#
1%
b00011001 (
bx1011101 (
#435
0!
0#
#440
1!
1#
0%
#445
0!
0#
#450
1!
1#
1&
#455
0!
0#
#460
1!
1#
bx1011101 )
0&
